Sleep Quality Analysis
…
Code

resultado %>%
     group_by(interaction.depth, n.minobsinnode, shrinkage) %>%
     slice_min(dev, n = 1)%>%
     arrange(dev)

# A tibble: 64 × 5
# Groups:   interaction.depth, n.minobsinnode, shrinkage [64]
   shrinkage interaction.depth n.minobsinnode ntrees   dev
   <fct>     <fct>             <fct>           <int> <dbl>
 1 0.05      3                 13                125 0.885
 2 0.005     3                 13               1271 0.885
 3 0.01      3                 13                640 0.887
 4 0.05      3                 31                138 0.888
 5 0.01      3                 31                652 0.889
 6 0.1       3                 31                 69 0.890
 7 0.005     3                 31               1263 0.890
 8 0.1       3                 13                 64 0.893
 9 0.01      3                 7                 676 0.901
10 0.005     3                 7                1347 0.902
# ℹ 54 more rows
…
